…
``` r
library(tidyverse)
```

``` r
co2 <- 
read_table("https://raw.githubusercontent.com/espm-157/climate-template/master/assignment/co2_mm_mlo.txt", 
                  comment="#",
                  col_names = c("year", "month", "decimal_date", "average",
                                "interpolated", "trend", "days"),
                  na = c("-1", "-99.99"))
co2
```

    ## # A tibble: 749 x 7
    ##     year month decimal_date average interpolated trend  days
    ##    <dbl> <dbl>        <dbl>   <dbl>        <dbl> <dbl> <dbl>
    ##  1  1958     3        1958.    316.         316.  315.    NA
    ##  2  1958     4        1958.    317.         317.  315.    NA
    ##  3  1958     5        1958.    318.         318.  315.    NA
    ##  4  1958     6        1958.     NA          317.  315.    NA
    ##  5  1958     7        1959.    316.         316.  315.    NA
    ##  6  1958     8        1959.    315.         315.  316.    NA
    ##  7  1958     9        1959.    313.         313.  316.    NA
    ##  8  1958    10        1959.     NA          313.  316.    NA
    ##  9  1958    11        1959.    313.         313.  315.    NA
    ## 10  1958    12        1959.    315.         315.  316.    NA
    ## # … with 739 more rows
…
    ## Parsed with column specification:
    ## cols(
    ##   year = col_double(),
    ##   temp = col_double(),
    ##   lowess5 = col_double()
    ## )

``` r
temperature
```

    ## # A tibble: 140 x 3
    ##     year  temp lowess5
    ##    <dbl> <dbl>   <dbl>
    ##  1  1880 -0.16   -0.08
    ##  2  1881 -0.07   -0.12
    ##  3  1882 -0.1    -0.16
    ##  4  1883 -0.17   -0.19
    ##  5  1884 -0.28   -0.23
    ##  6  1885 -0.32   -0.25
    ##  7  1886 -0.3    -0.26
    ##  8  1887 -0.35   -0.26
    ##  9  1888 -0.16   -0.26
    ## 10  1889 -0.09   -0.25
    ## # … with 130 more rows
…
    ## Parsed with column specification:
    ## cols(
    ##   time = col_double(),
    ##   greenland_mass = col_double(),
    ##   antarctica_mass = col_double()
    ## )

``` r
ice
```

    ## # A tibble: 140 x 3
    ##     time greenland_mass antarctica_mass
    ##    <dbl>          <dbl>           <dbl>
    ##  1 2002.          1491.            967.
    ##  2 2002.          1486.            979.
    ##  3 2003.          1287.            512.
    ##  4 2003.          1258.            859.
    ##  5 2003.          1257.            694.
    ##  6 2003.          1288.            592.
    ##  7 2003.          1337.            658.
    ##  8 2003.          1354.            477.
    ##  9 2003.          1363.            546.
    ## 10 2003.          1427.            494.
    ## # … with 130 more rows
…
``` r
sea_level
```

    ## # A tibble: 844 x 10
    ##    altimeter_type merged_file_cyc… number_of_obser… number_of_weigh…
    ##             <dbl>            <dbl>            <dbl>            <dbl>
    ##  1              0               14            1993.           419112
    ##  2              0               15            1993.           456793
    ##  3              0               16            1993.           414055
    ##  4              0               17            1993.           465235
    ##  5              0               18            1993.           463257
    ##  6              0               19            1993.           458542
    ##  7            999               20            1993.           464921
    ##  8              0               21            1993.           459017
    ##  9              0               22            1993.           467041
    ## 10              0               23            1993.           464740
    ## # … with 834 more rows, and 6 more variables:
    ## #   gmsl_variation_adjustment_not_applied <dbl>,
    ## #   standard_deviation_of_gmsl_variation_no_adjustment <dbl>,
    ## #   gmsl_variation_adjustment_applied <dbl>,
    ## #   standard_deviation_of_gmsl_adjustment <dbl>, smoothed_gmsl_variation <dbl>,
    ## #   smoothed_gmsl_variation_removed_signal <dbl>
…
    ## Warning: 13648 parsing failures.
    ## row col  expected    actual                                                                                                 file
    ##   1  -- 5 columns 6 columns 'https://github.com/espm-157/climate-template/releases/download/data/N_seaice_extent_daily_v3.0.csv'
    ##   2  -- 5 columns 6 columns 'https://github.com/espm-157/climate-template/releases/download/data/N_seaice_extent_daily_v3.0.csv'
    ##   3  -- 5 columns 6 columns 'https://github.com/espm-157/climate-template/releases/download/data/N_seaice_extent_daily_v3.0.csv'
    ##   4  -- 5 columns 6 columns 'https://github.com/espm-157/climate-template/releases/download/data/N_seaice_extent_daily_v3.0.csv'
    ##   5  -- 5 columns 6 columns 'https://github.com/espm-157/climate-template/releases/download/data/N_seaice_extent_daily_v3.0.csv'
    ## ... ... ......... ......... ....................................................................................................
    ## See problems(...) for more details.

``` r
sea_ice
```

    ## # A tibble: 13,648 x 5
    ##     year month day   extent missing
    ##    <dbl> <chr> <chr>  <dbl>   <dbl>
    ##  1  1978 10    26      10.2       0
    ##  2  1978 10    28      10.4       0
    ##  3  1978 10    30      10.6       0
    ##  4  1978 11    01      10.7       0
    ##  5  1978 11    03      10.8       0
    ##  6  1978 11    05      11.0       0
    ##  7  1978 11    07      11.1       0
    ##  8  1978 11    09      11.2       0
    ##  9  1978 11    11      11.3       0
    ## 10  1978 11    13      11.5       0
    ## # … with 13,638 more rows
…
``` r
avg_sea_ice <- sea_ice %>% 
  mutate(date = make_date(year, month, day)) %>%
  group_by(year(date)) %>%
  summarize(avg_extent = mean(extent, na.rm = TRUE))
```

    ## `summarise()` ungrouping output (override with `.groups` argument)

``` r
avg_sea_ice
```

    ## # A tibble: 43 x 2
    ##    `year(date)` avg_extent
    ##           <dbl>      <dbl>
    ##  1         1978       12.5
    ##  2         1979       12.3
    ##  3         1980       12.3
    ##  4         1981       12.1
    ##  5         1982       12.4
    ##  6         1983       12.3
    ##  7         1984       11.9
    ##  8         1985       12.0
    ##  9         1986       12.2
    ## 10         1987       11.4
    ## # … with 33 more rows
…
